Applied Machine Learning
…
---

# Residual Analysis <img src="images/tune.png" class="title-hex">

Recall that the `save_pred = TRUE` option was used. That retains the held-out predictions for each resample and sub-model. Those are in a list column called `.predictions`. 

We can use `tidyr::unnest()` to get the results back or use this convenience function:

```r
glmn_pred <- collect_predictions(glmn_tune)
glmn_pred
```

```
## # A tibble: 22,400 x 7
##    id     .pred  .row penalty mixture ridership .config 
##    <chr>  <dbl> <int>   <dbl>   <dbl>     <dbl> <chr>   
##  1 Slice1  19.1  5461 0.001      0.05      19.6 Model001
##  2 Slice1  19.1  5461 0.00127    0.05      19.6 Model002
##  3 Slice1  19.1  5461 0.00162    0.05      19.6 Model003
##  4 Slice1  19.1  5461 0.00207    0.05      19.6 Model004
##  5 Slice1  19.1  5461 0.00264    0.05      19.6 Model005
##  6 Slice1  19.1  5461 0.00336    0.05      19.6 Model006
##  7 Slice1  19.1  5461 0.00428    0.05      19.6 Model007
##  8 Slice1  19.1  5461 0.00546    0.05      19.6 Model008
##  9 Slice1  19.1  5461 0.00695    0.05      19.6 Model009
## 10 Slice1  19.1  5461 0.00886    0.05      19.6 Model010
## # … with 22,390 more rows
```
…
